projetoSD/simulation/qsim/calc.msim.vcd
$comment
	File created using the following command:
		vcd file calc.msim.vcd -direction
$end
$date
	Sat Apr 08 15:24:51 2023
$end
$version
	ModelSim Version 2020.1
$end
$timescale
	1ps
$end

$scope module ProjetoSD_vlg_vec_tst $end
$var reg 1 ! clk $end
$var reg 1 " tecla_0 $end
$var reg 1 # tecla_1 $end
$var reg 1 $ tecla_2 $end
$var reg 1 % tecla_3 $end
$var reg 1 & tecla_4 $end
$var reg 1 ' tecla_5 $end
$var reg 1 ( tecla_6 $end
$var reg 1 ) tecla_7 $end
$var reg 1 * tecla_8 $end
$var reg 1 + tecla_9 $end
$var reg 1 , tecla_A $end
$var reg 1 - tecla_Ast $end
$var reg 1 . tecla_B $end
$var reg 1 / tecla_C $end
$var reg 1 0 tecla_D $end
$var reg 1 1 tecla_Hash $end
$var wire 1 2 resultado [13] $end
$var wire 1 3 resultado [12] $end
$var wire 1 4 resultado [11] $end
$var wire 1 5 resultado [10] $end
$var wire 1 6 resultado [9] $end
$var wire 1 7 resultado [8] $end
$var wire 1 8 resultado [7] $end
$var wire 1 9 resultado [6] $end
$var wire 1 : resultado [5] $end
$var wire 1 ; resultado [4] $end
$var wire 1 < resultado [3] $end
$var wire 1 = resultado [2] $end
$var wire 1 > resultado [1] $end
$var wire 1 ? resultado [0] $end

$scope module i1 $end
$var wire 1 @ gnd $end
$var wire 1 A vcc $end
$var wire 1 B unknown $end
$var tri1 1 C devclrn $end
$var tri1 1 D devpor $end
$var tri1 1 E devoe $end
$var wire 1 F Mult0|auto_generated|mac_out2~0 $end
$var wire 1 G Mult0|auto_generated|mac_out2~1 $end
$var wire 1 H Mult0|auto_generated|mac_out2~2 $end
$var wire 1 I Mult0|auto_generated|mac_out2~3 $end
$var wire 1 J tecla_D~input_o $end
$var wire 1 K resultado[0]~output_o $end
$var wire 1 L resultado[1]~output_o $end
$var wire 1 M resultado[2]~output_o $end
$var wire 1 N resultado[3]~output_o $end
$var wire 1 O resultado[4]~output_o $end
$var wire 1 P resultado[5]~output_o $end
$var wire 1 Q resultado[6]~output_o $end
$var wire 1 R resultado[7]~output_o $end
$var wire 1 S resultado[8]~output_o $end
$var wire 1 T resultado[9]~output_o $end
$var wire 1 U resultado[10]~output_o $end
$var wire 1 V resultado[11]~output_o $end
$var wire 1 W resultado[12]~output_o $end
$var wire 1 X resultado[13]~output_o $end
$var wire 1 Y clk~input_o $end
$var wire 1 Z clk~inputclkctrl_outclk $end
$var wire 1 [ tecla_Ast~input_o $end
$var wire 1 \ tecla_C~input_o $end
$var wire 1 ] tecla_B~input_o $end
$var wire 1 ^ tecla_A~input_o $end
$var wire 1 _ tecla_Hash~input_o $end
$var wire 1 ` state~16_combout $end
$var wire 1 a state.numero1Input~0_combout $end
$var wire 1 b state.numero1Input~q $end
$var wire 1 c state~19_combout $end
$var wire 1 d state~20_combout $end
$var wire 1 e state.numero2Input~q $end
$var wire 1 f resultado~0_combout $end
$var wire 1 g resultado~0clkctrl_outclk $end
$var wire 1 h state~18_combout $end
$var wire 1 i state.multOutput~q $end
$var wire 1 j tecla_2~input_o $end
$var wire 1 k tecla_5~input_o $end
$var wire 1 l tecla_7~input_o $end
$var wire 1 m tecla_6~input_o $end
$var wire 1 n tecla_8~input_o $end
$var wire 1 o numero2[0]~0_combout $end
$var wire 1 p tecla_4~input_o $end
$var wire 1 q tecla_3~input_o $end
$var wire 1 r numero2[0]~1_combout $end
$var wire 1 s tecla_1~input_o $end
$var wire 1 t tecla_0~input_o $end
$var wire 1 u numero2[0]~2_combout $end
$var wire 1 v tecla_9~input_o $end
$var wire 1 w numero1[6]~17_combout $end
$var wire 1 x numero1[6]~13_combout $end
$var wire 1 y numero1[1]~42_combout $end
$var wire 1 z numero1[6]~8_combout $end
$var wire 1 { numero1[1]~14_combout $end
$var wire 1 | numero1[5]~15_combout $end
$var wire 1 } numero1[5]~16_combout $end
$var wire 1 ~ Add8~0_combout $end
$var wire 1 !! Add5~0_combout $end
$var wire 1 "! numero2[1]~8_combout $end
$var wire 1 #! numero2[1]~9_combout $end
$var wire 1 $! numero2[1]~10_combout $end
$var wire 1 %! Add5~1 $end
$var wire 1 &! Add5~2_combout $end
$var wire 1 '! numero1[6]~9_combout $end
$var wire 1 (! Add8~1 $end
$var wire 1 )! Add8~2_combout $end
$var wire 1 *! Add6~0_combout $end
$var wire 1 +! numero2[2]~12_combout $end
$var wire 1 ,! numero2[2]~13_combout $end
$var wire 1 -! numero1[5]~22_combout $end
$var wire 1 .! numero2[2]~11_combout $end
$var wire 1 /! numero2[2]~5_combout $end
$var wire 1 0! numero1[2]~21_combout $end
$var wire 1 1! numero2[2]~14_combout $end
$var wire 1 2! Add7~0_combout $end
$var wire 1 3! Add5~3 $end
$var wire 1 4! Add5~4_combout $end
$var wire 1 5! numero2[3]~18_combout $end
$var wire 1 6! numero2[3]~15_combout $end
$var wire 1 7! Add6~1 $end
$var wire 1 8! Add6~2_combout $end
$var wire 1 9! Add8~3 $end
$var wire 1 :! Add8~4_combout $end
$var wire 1 ;! numero2[3]~16_combout $end
$var wire 1 <! numero2[3]~17_combout $end
$var wire 1 =! numero2[0]~6_combout $end
$var wire 1 >! numero2[3]~19_combout $end
$var wire 1 ?! Add7~1_combout $end
$var wire 1 @! Add5~5 $end
$var wire 1 A! Add5~6_combout $end
$var wire 1 B! Add6~3 $end
$var wire 1 C! Add6~4_combout $end
$var wire 1 D! Add9~2_combout $end
$var wire 1 E! numero2[4]~20_combout $end
$var wire 1 F! Add8~5 $end
$var wire 1 G! Add8~6_combout $end
$var wire 1 H! numero2[4]~21_combout $end
$var wire 1 I! numero2[4]~22_combout $end
$var wire 1 J! Add7~2_combout $end
$var wire 1 K! Add7~3_combout $end
$var wire 1 L! Add6~5 $end
$var wire 1 M! Add6~6_combout $end
$var wire 1 N! Add5~7 $end
$var wire 1 O! Add5~8_combout $end
$var wire 1 P! Add9~4_combout $end
$var wire 1 Q! Add8~7 $end
$var wire 1 R! Add8~8_combout $end
$var wire 1 S! numero2[5]~23_combout $end
$var wire 1 T! numero2[5]~24_combout $end
$var wire 1 U! numero2[5]~25_combout $end
$var wire 1 V! Equal1~0_combout $end
$var wire 1 W! Equal1~1_combout $end
$var wire 1 X! Add7~4_combout $end
$var wire 1 Y! Add7~5_combout $end
$var wire 1 Z! Add8~9 $end
$var wire 1 [! Add8~10_combout $end
$var wire 1 \! Add5~9 $end
$var wire 1 ]! Add5~10_combout $end
$var wire 1 ^! Add9~3_combout $end
$var wire 1 _! Add6~7 $end
$var wire 1 `! Add6~8_combout $end
$var wire 1 a! numero2[6]~26_combout $end
$var wire 1 b! numero2[6]~27_combout $end
$var wire 1 c! numero2[6]~28_combout $end
$var wire 1 d! numero2[0]~3_combout $end
$var wire 1 e! numero2[0]~4_combout $end
$var wire 1 f! numero2[0]~7_combout $end
$var wire 1 g! numero2[0]~7clkctrl_outclk $end
$var wire 1 h! state~15_combout $end
$var wire 1 i! state~17_combout $end
$var wire 1 j! state.subOutput~q $end
$var wire 1 k! Add10|auto_generated|_~0_combout $end
$var wire 1 l! Add2~0_combout $end
$var wire 1 m! Add0~1 $end
$var wire 1 n! Add0~3 $end
$var wire 1 o! Add0~4_combout $end
$var wire 1 p! numero1[3]~29_combout $end
$var wire 1 q! Add3~1 $end
$var wire 1 r! Add3~3 $end
$var wire 1 s! Add3~4_combout $end
$var wire 1 t! numero1[3]~27_combout $end
$var wire 1 u! Add1~1 $end
$var wire 1 v! Add1~2_combout $end
$var wire 1 w! numero1[3]~28_combout $end
$var wire 1 x! numero1[3]~30_combout $end
$var wire 1 y! Add2~1_combout $end
$var wire 1 z! Add1~3 $end
$var wire 1 {! Add1~4_combout $end
$var wire 1 |! Add0~5 $end
$var wire 1 }! Add0~6_combout $end
$var wire 1 ~! Add4~2_combout $end
$var wire 1 !" Add3~5 $end
$var wire 1 "" Add3~6_combout $end
$var wire 1 #" numero1[4]~31_combout $end
$var wire 1 $" numero1[4]~32_combout $end
$var wire 1 %" numero1[4]~33_combout $end
$var wire 1 &" Add2~2_combout $end
$var wire 1 '" Add2~3_combout $end
$var wire 1 (" Add0~7 $end
$var wire 1 )" Add0~8_combout $end
$var wire 1 *" Add3~7 $end
$var wire 1 +" Add3~8_combout $end
$var wire 1 ," Add4~3_combout $end
$var wire 1 -" Add1~5 $end
$var wire 1 ." Add1~6_combout $end
$var wire 1 /" numero1[5]~34_combout $end
$var wire 1 0" numero1[5]~35_combout $end
$var wire 1 1" numero1[5]~36_combout $end
$var wire 1 2" Equal0~0_combout $end
$var wire 1 3" Equal0~1_combout $end
$var wire 1 4" Add3~0_combout $end
$var wire 1 5" Add0~0_combout $end
$var wire 1 6" numero1[1]~18_combout $end
$var wire 1 7" numero1[1]~19_combout $end
$var wire 1 8" numero1[1]~20_combout $end
$var wire 1 9" Add0~2_combout $end
$var wire 1 :" Add3~2_combout $end
$var wire 1 ;" Add1~0_combout $end
$var wire 1 <" numero1[2]~24_combout $end
$var wire 1 =" numero1[2]~25_combout $end
$var wire 1 >" numero1[2]~23_combout $end
$var wire 1 ?" numero1[2]~26_combout $end
$var wire 1 @" Add2~4_combout $end
$var wire 1 A" Add2~5_combout $end
$var wire 1 B" numero1[6]~43_combout $end
$var wire 1 C" Add1~7 $end
$var wire 1 D" Add1~8_combout $end
$var wire 1 E" numero1[6]~37_combout $end
$var wire 1 F" Add0~9 $end
$var wire 1 G" Add0~10_combout $end
$var wire 1 H" numero1[6]~38_combout $end
$var wire 1 I" Add3~9 $end
$var wire 1 J" Add3~10_combout $end
$var wire 1 K" numero1[6]~39_combout $end
$var wire 1 L" numero1[6]~40_combout $end
$var wire 1 M" numero1[6]~41_combout $end
$var wire 1 N" numero1[0]~10_combout $end
$var wire 1 O" numero1[0]~11_combout $end
$var wire 1 P" numero1[0]~12_combout $end
$var wire 1 Q" numero1[0]~12clkctrl_outclk $end
$var wire 1 R" Add10|auto_generated|result_int[0]~1_cout $end
$var wire 1 S" Add10|auto_generated|result_int[1]~2_combout $end
$var wire 1 T" Mult0|auto_generated|mac_mult1~dataout $end
$var wire 1 U" Mult0|auto_generated|mac_mult1~DATAOUT1 $end
$var wire 1 V" Mult0|auto_generated|mac_mult1~DATAOUT2 $end
$var wire 1 W" Mult0|auto_generated|mac_mult1~DATAOUT3 $end
$var wire 1 X" Mult0|auto_generated|mac_mult1~DATAOUT4 $end
$var wire 1 Y" Mult0|auto_generated|mac_mult1~DATAOUT5 $end
$var wire 1 Z" Mult0|auto_generated|mac_mult1~DATAOUT6 $end
$var wire 1 [" Mult0|auto_generated|mac_mult1~DATAOUT7 $end
$var wire 1 \" Mult0|auto_generated|mac_mult1~DATAOUT8 $end
$var wire 1 ]" Mult0|auto_generated|mac_mult1~DATAOUT9 $end
$var wire 1 ^" Mult0|auto_generated|mac_mult1~DATAOUT10 $end
$var wire 1 _" Mult0|auto_generated|mac_mult1~DATAOUT11 $end
$var wire 1 `" Mult0|auto_generated|mac_mult1~DATAOUT12 $end
$var wire 1 a" Mult0|auto_generated|mac_mult1~DATAOUT13 $end
$var wire 1 b" Mult0|auto_generated|mac_mult1~0 $end
$var wire 1 c" Mult0|auto_generated|mac_mult1~1 $end
$var wire 1 d" Mult0|auto_generated|mac_mult1~2 $end
$var wire 1 e" Mult0|auto_generated|mac_mult1~3 $end
$var wire 1 f" Mult0|auto_generated|mac_out2~dataout $end
$var wire 1 g" Add10|auto_generated|op_1~0_combout $end
$var wire 1 h" resultado[0]$latch~combout $end
$var wire 1 i" Add10|auto_generated|_~1_combout $end
$var wire 1 j" Add10|auto_generated|result_int[1]~3 $end
$var wire 1 k" Add10|auto_generated|result_int[2]~4_combout $end
$var wire 1 l" Mult0|auto_generated|mac_out2~DATAOUT1 $end
$var wire 1 m" Add10|auto_generated|op_1~1_combout $end
$var wire 1 n" resultado[1]$latch~combout $end
$var wire 1 o" Mult0|auto_generated|mac_out2~DATAOUT2 $end
$var wire 1 p" Add10|auto_generated|_~2_combout $end
$var wire 1 q" Add10|auto_generated|result_int[2]~5 $end
$var wire 1 r" Add10|auto_generated|result_int[3]~6_combout $end
$var wire 1 s" Add10|auto_generated|op_1~2_combout $end
$var wire 1 t" resultado[2]$latch~combout $end
$var wire 1 u" Add10|auto_generated|_~3_combout $end
$var wire 1 v" Add10|auto_generated|result_int[3]~7 $end
$var wire 1 w" Add10|auto_generated|result_int[4]~8_combout $end
$var wire 1 x" Mult0|auto_generated|mac_out2~DATAOUT3 $end
$var wire 1 y" Add10|auto_generated|op_1~3_combout $end
$var wire 1 z" resultado[3]$latch~combout $end
$var wire 1 {" Add10|auto_generated|_~4_combout $end
$var wire 1 |" Add10|auto_generated|result_int[4]~9 $end
$var wire 1 }" Add10|auto_generated|result_int[5]~10_combout $end
$var wire 1 ~" Mult0|auto_generated|mac_out2~DATAOUT4 $end
$var wire 1 !# Add10|auto_generated|op_1~4_combout $end
$var wire 1 "# resultado[4]$latch~combout $end
$var wire 1 ## Mult0|auto_generated|mac_out2~DATAOUT5 $end
$var wire 1 $# Add10|auto_generated|_~5_combout $end
$var wire 1 %# Add10|auto_generated|result_int[5]~11 $end
$var wire 1 &# Add10|auto_generated|result_int[6]~12_combout $end
$var wire 1 '# Add10|auto_generated|op_1~5_combout $end
$var wire 1 (# resultado[5]$latch~combout $end
$var wire 1 )# Mult0|auto_generated|mac_out2~DATAOUT6 $end
$var wire 1 *# Add10|auto_generated|_~6_combout $end
$var wire 1 +# Add10|auto_generated|result_int[6]~13 $end
$var wire 1 ,# Add10|auto_generated|result_int[7]~14_combout $end
$var wire 1 -# Add10|auto_generated|op_1~6_combout $end
$var wire 1 .# resultado[6]$latch~combout $end
$var wire 1 /# Mult0|auto_generated|mac_out2~DATAOUT7 $end
$var wire 1 0# Add10|auto_generated|result_int[7]~15 $end
$var wire 1 1# Add10|auto_generated|result_int[8]~16_combout $end
$var wire 1 2# Add10|auto_generated|op_1~7_combout $end
$var wire 1 3# resultado[7]$latch~combout $end
$var wire 1 4# Add11~1_cout $end
$var wire 1 5# Add11~3_cout $end
$var wire 1 6# Add11~5_cout $end
$var wire 1 7# Add11~7_cout $end
$var wire 1 8# Add11~9_cout $end
$var wire 1 9# Add11~11_cout $end
$var wire 1 :# Add11~13_cout $end
$var wire 1 ;# Add11~14_combout $end
$var wire 1 <# Mult0|auto_generated|mac_out2~DATAOUT8 $end
$var wire 1 =# Selector8~0_combout $end
$var wire 1 ># resultado[8]$latch~combout $end
$var wire 1 ?# Mult0|auto_generated|mac_out2~DATAOUT9 $end
$var wire 1 @# Selector9~0_combout $end
$var wire 1 A# resultado[9]$latch~combout $end
$var wire 1 B# Mult0|auto_generated|mac_out2~DATAOUT10 $end
$var wire 1 C# Selector10~0_combout $end
$var wire 1 D# resultado[10]$latch~combout $end
$var wire 1 E# Mult0|auto_generated|mac_out2~DATAOUT11 $end
$var wire 1 F# Selector11~0_combout $end
$var wire 1 G# resultado[11]$latch~combout $end
$var wire 1 H# Mult0|auto_generated|mac_out2~DATAOUT12 $end
$var wire 1 I# Selector12~0_combout $end
$var wire 1 J# resultado[12]$latch~combout $end
$var wire 1 K# Mult0|auto_generated|mac_out2~DATAOUT13 $end
$var wire 1 L# Selector13~0_combout $end
$var wire 1 M# resultado[13]$latch~combout $end
$var wire 1 N# numero2 [6] $end
$var wire 1 O# numero2 [5] $end
$var wire 1 P# numero2 [4] $end
$var wire 1 Q# numero2 [3] $end
$var wire 1 R# numero2 [2] $end
$var wire 1 S# numero2 [1] $end
$var wire 1 T# numero2 [0] $end
$var wire 1 U# numero1 [6] $end
$var wire 1 V# numero1 [5] $end
$var wire 1 W# numero1 [4] $end
$var wire 1 X# numero1 [3] $end
$var wire 1 Y# numero1 [2] $end
$var wire 1 Z# numero1 [1] $end
$var wire 1 [# numero1 [0] $end
$var wire 1 \# Mult0|auto_generated|mac_out2_DATAOUT_bus [17] $end
$var wire 1 ]# Mult0|auto_generated|mac_out2_DATAOUT_bus [16] $end
$var wire 1 ^# Mult0|auto_generated|mac_out2_DATAOUT_bus [15] $end
$var wire 1 _# Mult0|auto_generated|mac_out2_DATAOUT_bus [14] $end
$var wire 1 `# Mult0|auto_generated|mac_out2_DATAOUT_bus [13] $end
$var wire 1 a# Mult0|auto_generated|mac_out2_DATAOUT_bus [12] $end
$var wire 1 b# Mult0|auto_generated|mac_out2_DATAOUT_bus [11] $end
$var wire 1 c# Mult0|auto_generated|mac_out2_DATAOUT_bus [10] $end
$var wire 1 d# Mult0|auto_generated|mac_out2_DATAOUT_bus [9] $end
$var wire 1 e# Mult0|auto_generated|mac_out2_DATAOUT_bus [8] $end
$var wire 1 f# Mult0|auto_generated|mac_out2_DATAOUT_bus [7] $end
$var wire 1 g# Mult0|auto_generated|mac_out2_DATAOUT_bus [6] $end
$var wire 1 h# Mult0|auto_generated|mac_out2_DATAOUT_bus [5] $end
$var wire 1 i# Mult0|auto_generated|mac_out2_DATAOUT_bus [4] $end
$var wire 1 j# Mult0|auto_generated|mac_out2_DATAOUT_bus [3] $end
$var wire 1 k# Mult0|auto_generated|mac_out2_DATAOUT_bus [2] $end
$var wire 1 l# Mult0|auto_generated|mac_out2_DATAOUT_bus [1] $end
$var wire 1 m# Mult0|auto_generated|mac_out2_DATAOUT_bus [0] $end
$var wire 1 n# Mult0|auto_generated|mac_mult1_DATAOUT_bus [17] $end
$var wire 1 o# Mult0|auto_generated|mac_mult1_DATAOUT_bus [16] $end
$var wire 1 p# Mult0|auto_generated|mac_mult1_DATAOUT_bus [15] $end
$var wire 1 q# Mult0|auto_generated|mac_mult1_DATAOUT_bus [14] $end
$var wire 1 r# Mult0|auto_generated|mac_mult1_DATAOUT_bus [13] $end
$var wire 1 s# Mult0|auto_generated|mac_mult1_DATAOUT_bus [12] $end
$var wire 1 t# Mult0|auto_generated|mac_mult1_DATAOUT_bus [11] $end
$var wire 1 u# Mult0|auto_generated|mac_mult1_DATAOUT_bus [10] $end
$var wire 1 v# Mult0|auto_generated|mac_mult1_DATAOUT_bus [9] $end
$var wire 1 w# Mult0|auto_generated|mac_mult1_DATAOUT_bus [8] $end
$var wire 1 x# Mult0|auto_generated|mac_mult1_DATAOUT_bus [7] $end
$var wire 1 y# Mult0|auto_generated|mac_mult1_DATAOUT_bus [6] $end
$var wire 1 z# Mult0|auto_generated|mac_mult1_DATAOUT_bus [5] $end
$var wire 1 {# Mult0|auto_generated|mac_mult1_DATAOUT_bus [4] $end
$var wire 1 |# Mult0|auto_generated|mac_mult1_DATAOUT_bus [3] $end
$var wire 1 }# Mult0|auto_generated|mac_mult1_DATAOUT_bus [2] $end
$var wire 1 ~# Mult0|auto_generated|mac_mult1_DATAOUT_bus [1] $end
$var wire 1 !$ Mult0|auto_generated|mac_mult1_DATAOUT_bus [0] $end
$upscope $end
$upscope $end
$enddefinitions $end
#0
$dumpvars
0!
0"
0#
0$
0%
0&
0'
0(
0)
0*
0+
0,
1-
0.
0/
00
11
x?
x>
x=
x<
x;
x:
x9
x8
x7
x6
x5
x4
x3
x2
0@
1A
xB
1C
1D
1E
xF
xG
xH
xI
0J
xK
xL
xM
xN
xO
xP
xQ
xR
xS
xT
xU
xV
xW
xX
0Y
0Z
1[
0\
0]
0^
1_
0`
0a
0b
0c
0d
0e
1f
1g
0h
0i
0j
0k
0l
0m
0n
1o
0p
0q
1r
0s
0t
1u
0v
0w
1x
1y
1z
0{
0|
0}
x~
x!!
0"!
x#!
x$!
x%!
x&!
1'!
x(!
x)!
x*!
0+!
0,!
1-!
x.!
1/!
00!
x1!
x2!
x3!
x4!
05!
16!
x7!
x8!
x9!
x:!
x;!
x<!
1=!
x>!
x?!
x@!
xA!
xB!
xC!
xD!
xE!
xF!
xG!
xH!
xI!
xJ!
xK!
xL!
xM!
xN!
xO!
xP!
xQ!
xR!
xS!
xT!
xU!
xV!
xW!
xX!
xY!
xZ!
x[!
x\!
x]!
x^!
x_!
x`!
xa!
xb!
xc!
0d!
0e!
0f!
0g!
0h!
0i!
0j!
xk!
xl!
xm!
xn!
xo!
0p!
xq!
xr!
xs!
xt!
xu!
xv!
xw!
xx!
xy!
xz!
x{!
x|!
x}!
x~!
x!"
x""
x#"
x$"
x%"
x&"
x'"
x("
x)"
x*"
x+"
x,"
x-"
x."
x/"
x0"
x1"
x2"
x3"
x4"
x5"
06"
x7"
x8"
x9"
x:"
x;"
0<"
0="
x>"
x?"
x@"
xA"
xB"
xC"
xD"
xE"
xF"
xG"
xH"
xI"
xJ"
xK"
xL"
xM"
xN"
xO"
0P"
0Q"
0R"
xS"
xT"
xU"
xV"
xW"
xX"
xY"
xZ"
x["
x\"
x]"
x^"
x_"
x`"
xa"
xb"
xc"
xd"
xe"
xf"
xg"
xh"
xi"
xj"
xk"
xl"
xm"
xn"
xo"
xp"
xq"
xr"
xs"
xt"
xu"
xv"
xw"
xx"
xy"
xz"
x{"
x|"
x}"
x~"
x!#
x"#
x##
x$#
x%#
x&#
x'#
x(#
x)#
x*#
x+#
x,#
x-#
x.#
x/#
x0#
x1#
x2#
x3#
x4#
x5#
x6#
x7#
x8#
x9#
x:#
x;#
x<#
0=#
x>#
x?#
0@#
xA#
xB#
0C#
xD#
xE#
0F#
xG#
xH#
0I#
xJ#
xK#
0L#
xM#
xT#
xS#
xR#
xQ#
xP#
xO#
xN#
x[#
xZ#
xY#
xX#
xW#
xV#
xU#
xm#
xl#
xk#
xj#
xi#
xh#
xg#
xf#
xe#
xd#
xc#
xb#
xa#
x`#
x_#
x^#
x]#
x\#
x!$
x~#
x}#
x|#
x{#
xz#
xy#
xx#
xw#
xv#
xu#
xt#
xs#
xr#
xq#
xp#
xo#
xn#
$end
#55000
1#
1s
06!
0/!
0y
1w
0w!
0<!
0=!
0B"
xp!
x5!
xP"
xQ"
#75000
0-
0[
1c
1a
1d
#100000
1!
1Y
1Z
#110000
0#
0s
16!
1/!
1y
0w
xw!
x<!
1=!
xB"
0p!
05!
0P"
0Q"
#150000
01
1-
0_
1[
0c
0a
0d
#165000
1#
1s
06!
0/!
0y
1w
0w!
0<!
0=!
0B"
xp!
x5!
xP"
xQ"
#200000
0!
0Y
0Z
#220000
0#
0s
16!
1/!
1y
0w
xw!
x<!
1=!
xB"
0p!
05!
0P"
0Q"
#225000
0-
0[
1a
1`
0a
#275000
1#
1s
06!
0/!
0y
1w
0w!
0<!
0=!
0B"
xp!
x5!
xP"
xQ"
#300000
11
1!
1-
1_
1Y
1[
1Z
0`
#330000
0#
0s
16!
1/!
1y
0w
xw!
x<!
1=!
xB"
0p!
05!
0P"
0Q"
#375000
0-
0[
1c
1a
1d
#385000
1#
1s
06!
0/!
0y
1w
0w!
0<!
0=!
0B"
xp!
x5!
xP"
xQ"
#400000
0!
0Y
0Z
1e
1b
xd!
0N"
xe!
0O"
xf!
0P"
0Q"
xg!
#440000
0#
0s
16!
1/!
1y
0w
xw!
x<!
1=!
xB"
0p!
05!
0f!
0g!
#450000
01
1-
0_
1[
0c
0a
0d
#495000
1#
1s
06!
0/!
0y
1w
0w!
0<!
0=!
0B"
xp!
x5!
xf!
xg!
#500000
1!
1Y
1Z
#525000
0-
0[
1a
1`
1d
#550000
1,
0#
1^
0s
0`
16!
1/!
1y
0w
xw!
x<!
1=!
xB"
0p!
05!
0d
0f!
0g!
#600000
11
0!
1-
1_
0Y
1[
0Z
0a
0e
0d!
0f
0g
0e!
0M#
0J#
0G#
0D#
0A#
0>#
0S
0T
0U
0V
0W
0X
02
03
04
05
06
07
#605000
1#
1s
06!
0/!
0y
1w
0w!
0<!
0=!
0B"
xp!
x5!
#660000
0#
0s
16!
1/!
1y
0w
xw!
x<!
1=!
xB"
0p!
05!
#675000
0-
0[
1c
1a
1d
#700000
1!
1Y
1Z
#715000
1#
1s
06!
0/!
0y
1w
0w!
0<!
0=!
0B"
xp!
x5!
#750000
01
1-
0_
1[
0c
0a
0d
#770000
0#
0s
16!
1/!
1y
0w
xw!
x<!
1=!
xB"
0p!
05!
#800000
0!
0Y
0Z
0b
xN"
1f
1g
xO"
#825000
0-
1#
0[
1s
1a
06!
0/!
0y
1w
0w!
0<!
0=!
0B"
xp!
x5!
xP"
xQ"
#880000
0#
0s
16!
1/!
1y
0w
xw!
x<!
1=!
xB"
0p!
05!
0P"
0Q"
#900000
11
1!
1-
1_
1Y
1[
1Z
0a
#935000
1#
1s
06!
0/!
0y
1w
0w!
0<!
0=!
0B"
xp!
x5!
xP"
xQ"
#975000
0-
0[
1c
1a
1d
#990000
0#
0s
16!
1/!
1y
0w
xw!
x<!
1=!
xB"
0p!
05!
0P"
0Q"
